{ "time": "2018-11-26 00:06:24.3862", "level": "INFO", "message": "manager@manager.com logged in successfully", "logger": "AllStar.Website.Controllers.AccountController" }
{ "time": "2018-11-26 00:06:31.5596", "level": "INFO", "message": "manager@manager.com logged in successfully", "logger": "AllStar.Website.Controllers.AccountController" }
{ "time": "2018-11-26 00:06:33.5377", "level": "INFO", "message": "manager@manager.com viewed Raymond Rice", "logger": "AllStar.Website.Controllers.EmployeesController" }
{ "time": "2018-11-26 00:06:37.4797", "level": "INFO", "message": "manager@manager.com viewed Raymond Rice", "logger": "AllStar.Website.Controllers.EmployeesController" }
{ "time": "2018-11-26 00:06:42.1208", "level": "INFO", "message": "manager@manager.com edited Raymond Rice", "logger": "AllStar.Website.Controllers.EmployeesController" }
{ "time": "2018-11-26 00:06:55.1552", "level": "INFO", "message": "manager@manager.com logged in successfully", "logger": "AllStar.Website.Controllers.AccountController" }
{ "time": "2018-11-26 00:08:39.1062", "level": "INFO", "message": "manager@manager.com viewed Raymond Rice", "logger": "AllStar.Website.Controllers.EmployeesController" }
{ "time": "2018-11-26 00:11:00.8979", "level": "INFO", "message": "manager@manager.com edited Raymond Rice", "logger": "AllStar.Website.Controllers.EmployeesController" }
{ "time": "2018-11-26 00:11:00.9529", "level": "INFO", "message": "manager@manager.com viewed Raymond Rice", "logger": "AllStar.Website.Controllers.EmployeesController" }
{ "time": "2018-11-26 00:27:29.5161", "level": "INFO", "message": "manager@manager.com logged in successfully", "logger": "AllStar.Website.Controllers.AccountController" }
{ "time": "2018-11-26 00:27:33.6354", "level": "INFO", "message": "manager@manager.com viewed Raymond Rice", "logger": "AllStar.Website.Controllers.EmployeesController" }
{ "time": "2018-11-26 00:27:49.4075", "level": "INFO", "message": "jklein1996@gmail.com logged in successfully", "logger": "AllStar.Website.Controllers.AccountController" }
{ "time": "2018-11-26 00:28:04.0847", "level": "INFO", "message": "jklein1996@gmail.com edited Raymond Rice", "logger": "AllStar.Website.Controllers.EmployeesController" }
{ "time": "2018-11-26 00:28:17.4033", "level": "INFO", "message": "manager@manager.com logged in successfully", "logger": "AllStar.Website.Controllers.AccountController" }
{ "time": "2018-11-26 00:28:21.4218", "level": "INFO", "message": "manager@manager.com viewed Raymond Rice", "logger": "AllStar.Website.Controllers.EmployeesController" }
{ "time": "2018-11-26 00:31:49.6066", "level": "INFO", "message": "manager@manager.com logged in successfully", "logger": "AllStar.Website.Controllers.AccountController" }
{ "time": "2018-11-26 00:32:00.2576", "level": "INFO", "message": "manager@manager.com viewed Raymond Rice", "logger": "AllStar.Website.Controllers.EmployeesController" }
{ "time": "2018-11-26 00:32:11.8491", "level": "INFO", "message": "jklein1996@gmail.com logged in successfully", "logger": "AllStar.Website.Controllers.AccountController" }
{ "time": "2018-11-26 00:33:05.4956", "level": "INFO", "message": "jklein1996@gmail.com edited Joseph Klein", "logger": "AllStar.Website.Controllers.EmployeesController" }
{ "time": "2018-11-26 00:33:27.7260", "level": "INFO", "message": "jklein1996@gmail.com edited Joseph Klein", "logger": "AllStar.Website.Controllers.EmployeesController" }
{ "time": "2018-11-26 00:34:11.7708", "level": "INFO", "message": "jklein1996@gmail.com edited Raymond Rice", "logger": "AllStar.Website.Controllers.EmployeesController" }
{ "time": "2018-11-26 00:34:27.4428", "level": "INFO", "message": "manager@manager.com logged in successfully", "logger": "AllStar.Website.Controllers.AccountController" }
{ "time": "2018-11-26 00:34:37.0323", "level": "INFO", "message": "manager@manager.com edited Raymond Rice", "logger": "AllStar.Website.Controllers.EmployeesController" }
{ "time": "2018-11-26 00:36:40.9629", "level": "INFO", "message": "manager@manager.com logged in successfully", "logger": "AllStar.Website.Controllers.AccountController" }
{ "time": "2018-11-26 00:36:59.7716", "level": "INFO", "message": "jklein1996@gmail.com logged in successfully", "logger": "AllStar.Website.Controllers.AccountController" }
{ "time": "2018-11-26 00:37:35.3253", "level": "INFO", "message": "jklein1996@gmail.com logged in successfully", "logger": "AllStar.Website.Controllers.AccountController" }
{ "time": "2018-11-26 00:37:44.0590", "level": "INFO", "message": "jklein1996@gmail.com logged in successfully", "logger": "AllStar.Website.Controllers.AccountController" }
{ "time": "2018-11-26 00:38:05.6127", "level": "INFO", "message": "manager@manager.com logged in successfully", "logger": "AllStar.Website.Controllers.AccountController" }
{ "time": "2018-11-26 00:38:19.3381", "level": "WARN", "message": "jklein1996@gmail.com failed to log in", "logger": "AllStar.Website.Controllers.AccountController" }
{ "time": "2018-11-26 00:38:24.9111", "level": "INFO", "message": "jklein1996@gmail.com logged in successfully", "logger": "AllStar.Website.Controllers.AccountController" }
{ "time": "2018-11-26 00:38:33.7532", "level": "INFO", "message": "jklein1996@gmail.com logged in successfully", "logger": "AllStar.Website.Controllers.AccountController" }
{ "time": "2018-11-26 00:38:43.1680", "level": "INFO", "message": "manager@manager.com logged in successfully", "logger": "AllStar.Website.Controllers.AccountController" }
{ "time": "2018-11-26 00:40:22.4940", "level": "INFO", "message": "jklein1996@gmail.com logged in successfully", "logger": "AllStar.Website.Controllers.AccountController" }
{ "time": "2018-11-26 00:40:31.1308", "level": "INFO", "message": "jklein1996@gmail.com edited Raymond Rice", "logger": "AllStar.Website.Controllers.EmployeesController" }
{ "time": "2018-11-26 00:41:03.7404", "level": "INFO", "message": "manager@manager.com logged in successfully", "logger": "AllStar.Website.Controllers.AccountController" }
{ "time": "2018-11-26 00:53:34.2321", "level": "INFO", "message": "jklein1996@gmail.com logged in successfully", "logger": "AllStar.Website.Controllers.AccountController" }
{ "time": "2018-11-26 00:53:41.5985", "level": "INFO", "message": "jklein1996@gmail.com edited Joseph Klein", "logger": "AllStar.Website.Controllers.EmployeesController" }
{ "time": "2018-11-26 00:54:42.7882", "level": "INFO", "message": "jklein1996@gmail.com logged in successfully", "logger": "AllStar.Website.Controllers.AccountController" }
{ "time": "2018-11-26 00:55:44.8475", "level": "INFO", "message": "manager@manager.com logged in successfully", "logger": "AllStar.Website.Controllers.AccountController" }
{ "time": "2018-11-26 00:55:53.6232", "level": "INFO", "message": "manager@manager.com viewed Raymond Rice", "logger": "AllStar.Website.Controllers.EmployeesController" }
{ "time": "2018-11-26 00:56:01.1742", "level": "INFO", "message": "manager@manager.com viewed Raymond Rice", "logger": "AllStar.Website.Controllers.EmployeesController" }
{ "time": "2018-11-26 00:56:51.4864", "level": "INFO", "message": "manager@manager.com viewed Raymond Rice", "logger": "AllStar.Website.Controllers.EmployeesController" }
{ "time": "2018-11-26 00:57:01.4522", "level": "INFO", "message": "jklein1996@gmail.com logged in successfully", "logger": "AllStar.Website.Controllers.AccountController" }
{ "time": "2018-11-26 01:08:42.6942", "level": "INFO", "message": "manager@manager.com logged in successfully", "logger": "AllStar.Website.Controllers.AccountController" }
{ "time": "2018-11-26 01:09:22.1684", "level": "ERROR", "message": "System.NullReferenceException: Object reference not set to an instance of an object.\r\n   at AllStar.Website.Controllers.HoursController.Create(Hour hour) in C:\\Users\\jklei\\Desktop\\Repositories\\midterm_josephklein\\AllStarConsulting\\AllStar.Website\\Controllers\\HoursController.cs:line 43", "logger": "AllStar.Website.Controllers.HoursController", "exception": "Object reference not set to an instance of an object.", "exception": { "type": "System.NullReferenceException", "message": "Object reference not set to an instance of an object." } }
{ "time": "2018-11-26 01:09:41.8345", "level": "ERROR", "message": "System.NullReferenceException: Object reference not set to an instance of an object.\r\n   at AllStar.Website.Controllers.HoursController.Create(Hour hour) in C:\\Users\\jklei\\Desktop\\Repositories\\midterm_josephklein\\AllStarConsulting\\AllStar.Website\\Controllers\\HoursController.cs:line 43", "logger": "AllStar.Website.Controllers.HoursController", "exception": "Object reference not set to an instance of an object.", "exception": { "type": "System.NullReferenceException", "message": "Object reference not set to an instance of an object." } }
{ "time": "2018-11-26 01:10:18.0309", "level": "INFO", "message": "manager@manager.com deleted Doing stuff", "logger": "AllStar.Website.Controllers.JobTasksController" }
{ "time": "2018-11-26 01:12:43.7769", "level": "INFO", "message": "jklein1996@gmail.com logged in successfully", "logger": "AllStar.Website.Controllers.AccountController" }
{ "time": "2018-11-26 01:12:48.3110", "level": "INFO", "message": "jklein1996@gmail.com edited Build a website", "logger": "AllStar.Website.Controllers.JobsController" }
{ "time": "2018-11-26 01:13:01.7693", "level": "INFO", "message": "jklein1996@gmail.com created Doing stuff", "logger": "AllStar.Website.Controllers.JobTasksController" }
{ "time": "2018-11-26 01:13:16.2495", "level": "INFO", "message": "manager@manager.com logged in successfully", "logger": "AllStar.Website.Controllers.AccountController" }
{ "time": "2018-11-26 01:13:35.5583", "level": "INFO", "message": "manager@manager.com created Doing stuff", "logger": "AllStar.Website.Controllers.JobTasksController" }
{ "time": "2018-11-26 01:18:51.7926", "level": "INFO", "message": "manager@manager.com viewed Raymond Rice", "logger": "AllStar.Website.Controllers.EmployeesController" }
{ "time": "2018-11-26 01:20:59.3508", "level": "INFO", "message": "manager@manager.com viewed Build a website", "logger": "AllStar.Website.Controllers.JobsController" }
{ "time": "2018-11-26 01:23:04.0036", "level": "INFO", "message": "manager@manager.com viewed Build a website", "logger": "AllStar.Website.Controllers.JobsController" }
{ "time": "2018-11-26 01:23:52.6534", "level": "INFO", "message": "manager@manager.com edited Doing stuff", "logger": "AllStar.Website.Controllers.JobTasksController" }
{ "time": "2018-11-26 01:23:56.8627", "level": "INFO", "message": "manager@manager.com edited Doing stuff", "logger": "AllStar.Website.Controllers.JobTasksController" }
{ "time": "2018-11-26 01:24:01.8848", "level": "INFO", "message": "manager@manager.com completed Build a website", "logger": "AllStar.Website.Controllers.JobsController" }
{ "time": "2018-11-26 01:24:30.2137", "level": "INFO", "message": "manager@manager.com uncompleted Build a website", "logger": "AllStar.Website.Controllers.JobsController" }
{ "time": "2018-11-26 01:25:46.1091", "level": "INFO", "message": "manager@manager.com completed Build a website", "logger": "AllStar.Website.Controllers.JobsController" }
{ "time": "2018-11-26 01:26:02.6279", "level": "INFO", "message": "jklein1996@gmail.com logged in successfully", "logger": "AllStar.Website.Controllers.AccountController" }
{ "time": "2018-11-26 01:44:20.5411", "level": "INFO", "message": "jklein1996@gmail.com logged in successfully", "logger": "AllStar.Website.Controllers.AccountController" }
{ "time": "2018-11-26 01:47:35.7577", "level": "INFO", "message": "jklein1996@gmail.com logged in successfully", "logger": "AllStar.Website.Controllers.AccountController" }
{ "time": "2018-11-26 01:49:37.1239", "level": "INFO", "message": "jklein1996@gmail.com edited Albert Aham", "logger": "AllStar.Website.Controllers.EmployeesController" }
{ "time": "2018-11-26 01:49:56.5431", "level": "INFO", "message": "jklein1996@gmail.com edited Jacob Rice", "logger": "AllStar.Website.Controllers.EmployeesController" }
{ "time": "2018-11-26 01:50:14.9289", "level": "INFO", "message": "jklein1996@gmail.com edited Raymond Rice", "logger": "AllStar.Website.Controllers.EmployeesController" }
{ "time": "2018-11-26 01:50:39.6910", "level": "INFO", "message": "jklein1996@gmail.com edited Raymond Rice", "logger": "AllStar.Website.Controllers.EmployeesController" }
{ "time": "2018-11-26 01:50:49.8324", "level": "INFO", "message": "jklein1996@gmail.com edited Tyler Ludwig", "logger": "AllStar.Website.Controllers.EmployeesController" }
{ "time": "2018-11-26 01:51:52.3278", "level": "INFO", "message": "jklein1996@gmail.com edited Build a website", "logger": "AllStar.Website.Controllers.JobsController" }
{ "time": "2018-11-26 01:52:10.0321", "level": "INFO", "message": "jklein1996@gmail.com completed Build a website", "logger": "AllStar.Website.Controllers.JobsController" }
{ "time": "2018-11-26 01:52:12.5964", "level": "INFO", "message": "jklein1996@gmail.com uncompleted Build a website", "logger": "AllStar.Website.Controllers.JobsController" }
{ "time": "2018-11-26 01:59:03.3058", "level": "INFO", "message": "jklein1996@gmail.com edited Construction", "logger": "AllStar.Website.Controllers.JobsController" }
{ "time": "2018-11-26 01:59:41.2528", "level": "INFO", "message": "jklein1996@gmail.com created Break Ice", "logger": "AllStar.Website.Controllers.JobsController" }
{ "time": "2018-11-26 02:00:17.2586", "level": "INFO", "message": "jklein1996@gmail.com created Go to the park", "logger": "AllStar.Website.Controllers.JobsController" }
{ "time": "2018-11-26 02:01:03.2381", "level": "INFO", "message": "jklein1996@gmail.com created Play video games", "logger": "AllStar.Website.Controllers.JobsController" }
{ "time": "2018-11-26 02:01:29.5947", "level": "INFO", "message": "jklein1996@gmail.com created Stop dancing", "logger": "AllStar.Website.Controllers.JobsController" }
{ "time": "2018-11-26 02:01:42.5889", "level": "INFO", "message": "jklein1996@gmail.com edited Break Ice", "logger": "AllStar.Website.Controllers.JobsController" }
{ "time": "2018-11-26 02:01:50.9677", "level": "INFO", "message": "jklein1996@gmail.com edited Go to the park", "logger": "AllStar.Website.Controllers.JobsController" }
{ "time": "2018-11-26 02:01:57.8495", "level": "INFO", "message": "jklein1996@gmail.com completed Build a website", "logger": "AllStar.Website.Controllers.JobsController" }
{ "time": "2018-11-26 02:02:26.9505", "level": "INFO", "message": "manager@manager.com logged in successfully", "logger": "AllStar.Website.Controllers.AccountController" }
{ "time": "2018-11-26 02:02:42.4277", "level": "INFO", "message": "manager@manager.com viewed Raymond Rice", "logger": "AllStar.Website.Controllers.EmployeesController" }
{ "time": "2018-11-26 02:02:54.7209", "level": "INFO", "message": "contractor1@contractor.com logged in successfully", "logger": "AllStar.Website.Controllers.AccountController" }
{ "time": "2018-11-26 02:03:08.3637", "level": "INFO", "message": "contractor1@contractor.com logged in successfully", "logger": "AllStar.Website.Controllers.AccountController" }
{ "time": "2018-11-26 02:03:18.6012", "level": "INFO", "message": "contractor2@contractor.com logged in successfully", "logger": "AllStar.Website.Controllers.AccountController" }
{ "time": "2018-11-26 02:03:20.9828", "level": "INFO", "message": "contractor2@contractor.com viewed Albert Aham", "logger": "AllStar.Website.Controllers.EmployeesController" }
{ "time": "2018-11-26 02:03:31.0001", "level": "INFO", "message": "contractor1@contractor.com logged in successfully", "logger": "AllStar.Website.Controllers.AccountController" }
{ "time": "2018-11-26 02:03:40.5384", "level": "INFO", "message": "contractor3@contractor.com logged in successfully", "logger": "AllStar.Website.Controllers.AccountController" }
{ "time": "2018-11-26 02:04:09.9640", "level": "INFO", "message": "jklein1996@gmail.com logged in successfully", "logger": "AllStar.Website.Controllers.AccountController" }
{ "time": "2018-11-26 02:04:41.5070", "level": "INFO", "message": "jklein1996@gmail.com edited Raymond Rice", "logger": "AllStar.Website.Controllers.EmployeesController" }
{ "time": "2018-11-26 02:04:48.5387", "level": "INFO", "message": "manager@manager.com logged in successfully", "logger": "AllStar.Website.Controllers.AccountController" }
{ "time": "2018-11-26 02:04:51.1890", "level": "INFO", "message": "manager@manager.com viewed Raymond Rice", "logger": "AllStar.Website.Controllers.EmployeesController" }
{ "time": "2018-11-26 02:04:52.5785", "level": "INFO", "message": "manager@manager.com viewed Raymond Rice", "logger": "AllStar.Website.Controllers.EmployeesController" }
{ "time": "2018-11-26 02:04:58.0268", "level": "INFO", "message": "manager@manager.com viewed Raymond Rice", "logger": "AllStar.Website.Controllers.EmployeesController" }
{ "time": "2018-11-26 02:08:22.0998", "level": "INFO", "message": "manager@manager.com logged in successfully", "logger": "AllStar.Website.Controllers.AccountController" }
{ "time": "2018-11-26 12:35:43.5506", "level": "INFO", "message": "jklein1996@gmail.com logged in successfully", "logger": "AllStar.Website.Controllers.AccountController" }
